<?xml version="1.0" encoding="utf-8"?>
<!-- Generator: Adobe Illustrator 19.0.0, SVG Export Plug-In . SVG Version: 6.00 Build 0)  -->
<svg version="1.1" id="Layer_1" xmlns="http://www.w3.org/2000/svg" xmlns:xlink="http://www.w3.org/1999/xlink" x="0px" y="0px"
	 viewBox="0 0 20 20" style="enable-background:new 0 0 20 20;" xml:space="preserve">
<style type="text/css">
	.st0{fill:#F08F04;}
	.st1{fill:#FFFFFF;}
</style>
<g id="XMLID_1_">
	<circle id="XMLID_6638_" class="st0" cx="9.9" cy="9.9" r="9.7"/>
	<path id="XMLID_6636_" class="st1" d="M9.9,3.6c-2.4,0-4.4,1.8-4.4,4c0,1,0.5,2.2,1,3c0.7,1.2,3.1,5.1,3.2,5.1l0.3,0.5l0.3-0.5
		c0.1-0.2,2.4-3.9,3.2-5.1c0.5-0.7,0.9-2,0.9-3C14.3,5.4,12.3,3.6,9.9,3.6z"/>
	<g id="XMLID_6629_">
		<path id="XMLID_6630_" class="st0" d="M11.3,7.6c0,0.8-0.6,1.4-1.4,1.4S8.5,8.4,8.5,7.6s0.6-1.4,1.4-1.4S11.3,6.8,11.3,7.6z"/>
	</g>
</g>
</svg>
