<?xml version="1.0" encoding="utf-8"?>
<!-- Generator: Adobe Illustrator 19.0.0, SVG Export Plug-In . SVG Version: 6.00 Build 0)  -->
<svg version="1.1" id="Layer_1" xmlns="http://www.w3.org/2000/svg" xmlns:xlink="http://www.w3.org/1999/xlink" x="0px" y="0px"
	 viewBox="0 0 30 30" style="enable-background:new 0 0 30 30;" xml:space="preserve">
<style type="text/css">
	.st0{fill-rule:evenodd;clip-rule:evenodd;}
	.st1{fill-rule:evenodd;clip-rule:evenodd;fill:#F08F04;}
</style>
<g id="XMLID_8_">
	<path id="XMLID_11_" class="st0" d="M1.9,15.4c0-7.4,6-13.3,13.3-13.3s13.3,6,13.3,13.3s-6,13.3-13.3,13.3S1.9,22.8,1.9,15.4
		L1.9,15.4z M1.9,15.4"/>
	<path id="XMLID_9_" class="st1" d="M15.8,23.9v-8.5h2.8l0.4-2.8h-3.2v-1.4c0-0.7,0.2-1.4,1.3-1.4h2.1V7h-3C13.7,7,13,8.6,13,10.9
		v1.7h-1.7v2.8H13v8.5H15.8z M15.8,23.9"/>
</g>
</svg>
