<?xml version="1.0" encoding="utf-8"?>
<!-- Generator: Adobe Illustrator 19.0.0, SVG Export Plug-In . SVG Version: 6.00 Build 0)  -->
<svg version="1.1" id="Layer_1" xmlns="http://www.w3.org/2000/svg" xmlns:xlink="http://www.w3.org/1999/xlink" x="0px" y="0px"
	 viewBox="-26 28 30 30" style="enable-background:new -26 28 30 30;" xml:space="preserve">
<style type="text/css">
	.st0{fill-rule:evenodd;clip-rule:evenodd;fill:#F08F04;}
</style>
<path id="XMLID_253_" d="M-24.3,43c0-7.4,6-13.3,13.3-13.3S2.3,35.7,2.3,43s-6,13.3-13.3,13.3S-24.3,50.4-24.3,43L-24.3,43z"/>
<path id="XMLID_256_" d="M-24.3,43"/>
<path id="XMLID_1361_" class="st0" d="M-17.9,49.9h2.6V39.5h-2.6V49.9z M-7.5,39.5c-2.2,0-3.3,1.7-3.4,1.7v-1.7h-2.6v10.3h2.6v-6
	c0-0.2,0.5-2,2.6-1.7c1.1,0.1,1.7,1.5,1.7,1.7v6l2.6,0v-7.2C-4.2,41.7-4.7,39.6-7.5,39.5L-7.5,39.5z M-16.6,36.1
	c-0.7,0-1.3,0.6-1.3,1.3c0,0.7,0.6,1.3,1.3,1.3c0.7,0,1.3-0.6,1.3-1.3C-15.3,36.7-15.9,36.1-16.6,36.1L-16.6,36.1z M-16.6,36.1"/>
</svg>
