<?xml version="1.0" encoding="utf-8"?>
<!-- Generator: Adobe Illustrator 19.0.0, SVG Export Plug-In . SVG Version: 6.00 Build 0)  -->
<svg version="1.1" id="Layer_1" xmlns="http://www.w3.org/2000/svg" xmlns:xlink="http://www.w3.org/1999/xlink" x="0px" y="0px"
	 viewBox="0 0 85 85" style="enable-background:new 0 0 85 85;" xml:space="preserve">
<style type="text/css">
	.st0{fill:#E5E5E5;}
	.st1{fill:#F08F04;}
</style>
<circle id="XMLID_24469_" class="st0" cx="45" cy="44" r="39.3"/>
<circle id="XMLID_103_" cx="40" cy="41" r="39.3"/>
<path id="XMLID_71341_" class="st1" d="M65.4,55.3l-7.6-7.6c-1.5-1.5-4-1.5-5.6,0.1l-3.8,3.8c-0.2-0.1-0.5-0.3-0.8-0.4
	c-2.4-1.3-5.7-3.2-9.2-6.6c-3.5-3.5-5.3-6.8-6.7-9.2c-0.1-0.3-0.3-0.5-0.4-0.7L34,32l1.3-1.3c1.6-1.6,1.6-4.1,0.1-5.6l-7.6-7.6
	c-1.5-1.5-4-1.5-5.6,0.1L20,19.9l0.1,0.1c-0.7,0.9-1.3,2-1.8,3.1c-0.4,1.1-0.7,2.1-0.8,3.2c-1,8.3,2.8,15.9,13.1,26.2
	c14.2,14.2,25.7,13.2,26.2,13.1c1.1-0.1,2.1-0.4,3.2-0.8c1.1-0.4,2.2-1,3.1-1.8l0,0l2.2-2.1C66.9,59.3,66.9,56.8,65.4,55.3
	L65.4,55.3z M63.6,59.2l-1,1l-0.4,0.4c-0.6,0.6-1.6,1.4-3.1,2c-0.9,0.3-1.7,0.5-2.6,0.6c-0.1,0-10.9,0.9-24.3-12.4
	C21,39.3,19.2,32.8,19.9,26.4c0.1-0.8,0.3-1.7,0.6-2.6c0.6-1.5,1.4-2.6,2-3.2l1.3-1.3c0.6-0.6,1.6-0.7,2.2-0.1l7.6,7.6
	c0.6,0.6,0.5,1.6-0.1,2.2l-5.1,5.1l0.5,0.8c0.3,0.4,0.5,0.9,0.8,1.5c1.4,2.5,3.3,6,7.1,9.7c3.7,3.7,7.2,5.6,9.7,7
	c0.5,0.3,1,0.6,1.5,0.9l0.8,0.5l5.1-5.1c0.6-0.6,1.6-0.7,2.2-0.1l7.6,7.6C64.3,57.5,64.3,58.5,63.6,59.2L63.6,59.2z M63.6,59.2"/>
</svg>
