<?xml version="1.0" encoding="utf-8"?>
<!-- Generator: Adobe Illustrator 19.0.0, SVG Export Plug-In . SVG Version: 6.00 Build 0)  -->
<svg version="1.1" id="Layer_1" xmlns="http://www.w3.org/2000/svg" xmlns:xlink="http://www.w3.org/1999/xlink" x="0px" y="0px"
	 viewBox="0 0 85 85" style="enable-background:new 0 0 85 85;" xml:space="preserve">
<style type="text/css">
	.st0{fill:#E5E5E5;}
	.st1{fill:#F08F04;}
</style>
<circle id="XMLID_24399_" class="st0" cx="45" cy="44" r="39.3"/>
<circle id="XMLID_104_" cx="40" cy="41" r="39.3"/>
<g id="XMLID_71332_">
	<path id="XMLID_71338_" class="st1" d="M63.6,41.7c0,8.7-3.1,14.3-7.9,14.3c-2.7,0-4.8-2.3-4.8-5.8v-3.3c-1.9,4.8-6.5,8-12.1,8
		c-7.6,0-13.2-5.7-13.2-13.5c0-7.9,5.6-13.6,13.2-13.6c5.7,0,10.2,3.2,12.1,8v-7.9h1v22.3c0,2.9,1.8,4.8,3.9,4.8
		c4.1,0,6.7-5.2,6.7-13.3c0-13.3-9.4-23-22.3-23c-13.2,0-22.7,9.6-22.7,22.8c0,12.6,9.3,21.9,22.1,21.9c2.9,0,6.9-1,9.3-2.3l0.4,0.9
		c-2.7,1.4-6.8,2.4-9.7,2.4c-13.4,0-23.1-9.6-23.1-22.9c0-13.8,10-23.9,23.8-23.9C53.7,17.6,63.6,27.8,63.6,41.7z M26.6,41.3
		c0,7.2,5.1,12.5,12.1,12.5s12.1-5.3,12.1-12.5c0-7.2-5.1-12.5-12.1-12.5S26.6,34.1,26.6,41.3z"/>
</g>
</svg>
