{ 
    "_id" : ObjectId("57aa65833bf7f0b00140ba2b"), 
    "salt" : "Hjke07HGx94p8z174d0sCA==", 
    "provider" : "local", 
    "email" : "ramiroauditore@hotmail.com", 
    "password" : "NanuveQqAMQ1OA4+BU25z5wSOu38plx4Z/88wKuXg6hcSgCn9xnc3ya5G7DNRfKP/8QaNXix2SKhWu1HJ9faLg==", 
    "nombre" : "Empresa", 
    "razon" : "Razón", 
    "sector" : "57846502a5643a154698b0ff", 
    "categoria" : "2", 
    "estado" : "13", 
    "municipio" : "578e785fc41b14798c46889c", 
    "sector_name" : "Servicios especializados", 
    "categoria_name" : "Computación y sistemas", 
    "suscripcion" : {
        "activa" : false, 
        "selecciondas" : [

        ]
    }, 
    "sucursales" : [
        {
            "loc" : [
                -103.42468956441803, 
                20.6868214
            ], 
            "_id" : ObjectId("57b4bcbb43669eec24fb10d4"), 
            "longitud" : "-103.42468956441803", 
            "latitud" : "20.6868214", 
            "nombreSucu" : "Debería Venir", 
            "cp" : "45110", 
            "numero" : "520", 
            "calle" : "Víctor Hugo", 
            "colonia" : "Jardines Universidad", 
            "ciudad" : "Zapopan", 
            "estadoSucursal" : "Jalisco"
        }, 
        {
            "loc" : [
                -103.83832601126426, 
                20.886729181208796
            ], 
            "_id" : ObjectId("57b4bcbb43669eec24fb10d3"), 
            "longitud" : "-103.83832601126426", 
            "latitud" : "20.886729181208796", 
            "nombreSucu" : "No debería", 
            "cp" : "46400", 
            "numero" : "27", 
            "calle" : "Monterrey", 
            "colonia" : "El Rastro", 
            "ciudad" : "Tequila", 
            "estadoSucursal" : "Jalisco"
        }
    ], 
    "redes" : {
        "facebook" : "http://www.facebook.com/Ramirox.Auditore", 
        "twitter" : "http://www.twitter.com/", 
        "youtube" : "http://www.youtube.com/", 
        "linkedin" : "http://www.linkedin.com/", 
        "googleplus" : "http://www.plus.google.com/"
    }, 
    "ventajas" : "Estoy bn loko alv xdxdxd\nhaha joke's on you Batman", 
    "about" : "Mi descripción. Está bien vergas la dvd.", 
    "productsImg" : [
        "image_Empresa_1470875668282.jpg", 
        "image_Empresa_1470928148204.jpg", 
        "image_Empresa_1471016442946.jpg"
    ], 
    "products" : [
        "Un Producto", 
        "Otro producto", 
        "Otro...", 
        "Last One", 
        "Diunavezotro", 
        "papu"
    ], 
    "tags" : [
        "Hola", 
        "Funciona", 
        "Otra"
    ], 
    "paquete" : "plus", 
    "role" : "empresa", 
    "active" : true, 
    "__v" : NumberInt(0), 
    "web" : "http://www.facebook.com", 
    "direccion" : "Una Calle #123", 
    "telefono" : "", 
    "favoritos" : [

    ], 
    "archivo" : "Archivo.pdf", 
    "videos" : [
        "video_Empresa_1471018386960.mp4", 
        "video_Empresa_1471018817325.mp4", 
        "video_Empresa_1471021608548.mp4"
    ], 
    "visitasTel" : [
        "57aa7ab1e611a4c4073ddc78"
    ], 
    "visitasGene" : [
        null, 
        null, 
        null, 
        null, 
        null, 
        "57aa7ab1e611a4c4073ddc78"
    ], 
    "planSolicitado" : {
        "openPayResponse" : {
            "payment_method" : {
                "name" : "0403022", 
                "clabe" : "646180109492308249", 
                "bank" : "STP", 
                "type" : "bank_transfer"
            }, 
            "currency" : "MXN", 
            "amount" : NumberInt(108000), 
            "order_id" : "PLA-150816022927262-07322", 
            "error_message" : null, 
            "description" : "Pago de PortaliaPlus paquete plus por un plazo de 12 meses realizado el 15/08/16", 
            "operation_date" : "2016-08-15T14:29:33-05:00", 
            "creation_date" : "2016-08-15T14:29:33-05:00", 
            "conciliated" : false, 
            "status" : "in_progress", 
            "transaction_type" : "charge", 
            "operation_type" : "in", 
            "method" : "bank_account", 
            "authorization" : null, 
            "id" : "truo6f2fzlzz38wvrbgk"
        }, 
        "period" : NumberInt(12), 
        "plan" : "plus"
    }
}
{ 
    "_id" : ObjectId("57aa7ab1e611a4c4073ddc78"), 
    "salt" : "YzjQA7nhZuUBJDqfS/rPKA==", 
    "provider" : "local", 
    "email" : "gamersrevolution360@gmail.com", 
    "password" : "AD9jGtNM2H7j32D7DTGQPcnNBF/vZhTREsK41n7Xd/RvL5XriXGUZBSFe2x5PgM0KBHkWMrDHvB6fyBThrDwKA==", 
    "nombre" : "Ramiro Lara", 
    "telefono" : "38343856", 
    "sector" : "", 
    "suscripcion" : {
        "activa" : false, 
        "selecciondas" : [

        ]
    }, 
    "sucursales" : [

    ], 
    "redes" : {
        "facebook" : "http://www.facebook.com/", 
        "twitter" : "http://www.twitter.com/", 
        "youtube" : "http://www.youtube.com/", 
        "linkedin" : "http://www.linkedin.com/", 
        "googleplus" : "http://www.plus.google.com/"
    }, 
    "ventajas" : "", 
    "about" : "", 
    "productsImg" : [

    ], 
    "products" : [
        "Producto 1", 
        "Producto 2"
    ], 
    "tags" : [
        "Chido men"
    ], 
    "paquete" : "gratis", 
    "role" : "visitante", 
    "active" : true, 
    "__v" : NumberInt(0), 
    "favoritos" : [
        {
            "_id" : ObjectId("57acb2a18e523b48171c373d"), 
            "idFav" : "57aa65833bf7f0b00140ba2b"
        }, 
        {
            "idFav" : "57acc0094c42ee18608dd725", 
            "_id" : ObjectId("57acd95bbe3f486c235befb3")
        }
    ]
}
{ 
    "_id" : ObjectId("57acc0094c42ee18608dd725"), 
    "salt" : "Hjke07HGx94p8z174d0sCA==", 
    "provider" : "local", 
    "email" : "elramiro@hotmail.com", 
    "password" : "NanuveQqAMQ1OA4+BU25z5wSOu38plx4Z/88wKuXg6hcSgCn9xnc3ya5G7DNRfKP/8QaNXix2SKhWu1HJ9faLg==", 
    "nombre" : "LOL", 
    "razon" : "Razón", 
    "sector" : "57846502a5643a154698b0ff", 
    "categoria" : "2", 
    "estado" : "13", 
    "municipio" : "578e785fc41b14798c46889c", 
    "sector_name" : "Servicios especializados", 
    "categoria_name" : "Computación y sistemas", 
    "suscripcion" : {
        "activa" : false, 
        "selecciondas" : [

        ]
    }, 
    "sucursales" : [

    ], 
    "redes" : {
        "facebook" : "http://www.facebook.com/Ramirox.Auditore", 
        "twitter" : "http://www.twitter.com/", 
        "youtube" : "http://www.youtube.com/", 
        "linkedin" : "http://www.linkedin.com/", 
        "googleplus" : "http://www.plus.google.com/"
    }, 
    "ventajas" : "Estoy bn loko alv xdxdxd\nhaha joke's on you Batman", 
    "about" : "Mi descripción. Está bien vergas la dvd.", 
    "productsImg" : [
        "image_Empresa_1470875668282.jpg", 
        "image_Empresa_1470928148204.jpg", 
        "image_Empresa_1470929045326.jpg"
    ], 
    "products" : [
        "Un Producto", 
        "Otro producto", 
        "Otro...", 
        "Last One", 
        "Diunavezotro", 
        "papu"
    ], 
    "tags" : [
        "Hola", 
        "Funciona", 
        "Otra"
    ], 
    "paquete" : "plus", 
    "role" : "empresa", 
    "active" : true, 
    "__v" : NumberInt(0), 
    "web" : "http://www.facebook.com", 
    "direccion" : "Una Calle #123", 
    "telefono" : "3338343856", 
    "favoritos" : [

    ]
}
